<svg width="100" height="100" viewBox="0 0 100 100" fill="none" xmlns="http://www.w3.org/2000/svg">
<path d="M50 6.25C25.8398 6.25 6.25 25.8398 6.25 50C6.25 74.1602 25.8398 93.75 50 93.75C74.1602 93.75 93.75 74.1602 93.75 50C93.75 25.8398 74.1602 6.25 50 6.25ZM50 86.3281C29.9414 86.3281 13.6719 70.0586 13.6719 50C13.6719 29.9414 29.9414 13.6719 50 13.6719C70.0586 13.6719 86.3281 29.9414 86.3281 50C86.3281 70.0586 70.0586 86.3281 50 86.3281Z" fill="#EB5757"/>
<path d="M45.3125 67.1875C45.3125 68.4307 45.8064 69.623 46.6854 70.5021C47.5645 71.3811 48.7568 71.875 50 71.875C51.2432 71.875 52.4355 71.3811 53.3146 70.5021C54.1936 69.623 54.6875 68.4307 54.6875 67.1875C54.6875 65.9443 54.1936 64.752 53.3146 63.8729C52.4355 62.9939 51.2432 62.5 50 62.5C48.7568 62.5 47.5645 62.9939 46.6854 63.8729C45.8064 64.752 45.3125 65.9443 45.3125 67.1875ZM47.6562 56.25H52.3438C52.7734 56.25 53.125 55.8984 53.125 55.4688V28.9062C53.125 28.4766 52.7734 28.125 52.3438 28.125H47.6562C47.2266 28.125 46.875 28.4766 46.875 28.9062V55.4688C46.875 55.8984 47.2266 56.25 47.6562 56.25Z" fill="#EB5757"/>
</svg>
