<svg width="176" height="186" viewBox="0 0 176 186" fill="none" xmlns="http://www.w3.org/2000/svg">
<g clip-path="url(#clip0)">
<path d="M160.337 23.4641H15.6888C8.45263 23.4641 2.58545 29.6646 2.58545 37.3119V49.6586L14.1747 67.6761H164.717L173.441 49.6586V37.3119C173.441 29.6646 167.573 23.4641 160.337 23.4641Z" fill="#287CA1"/>
<path d="M18.047 23.4641H15.6888C8.45263 23.4641 2.58545 29.6646 2.58545 37.3119V49.6586L14.1747 67.6761H18.047V23.4641Z" fill="#A0D5ED"/>
<path d="M30.6789 40.3031C36.2606 40.3031 40.8017 35.504 40.8017 29.6051V23.4641H20.5562V29.6051C20.5562 35.504 25.0972 40.3031 30.6789 40.3031Z" fill="#A0D5ED"/>
<path d="M30.6788 34.8641C27.9304 34.8641 25.7026 32.5097 25.7026 29.6052V17.3267C25.7026 14.4222 27.9304 12.0678 30.6788 12.0678C33.4271 12.0678 35.6549 14.4222 35.6549 17.3267V29.6052C35.6552 32.5097 33.4271 34.8641 30.6788 34.8641Z" fill="#F2EAE7"/>
<path d="M53.5982 40.3031C59.1799 40.3031 63.721 35.504 63.721 29.6051V23.4641H43.4751V29.6051C43.4751 35.504 48.0165 40.3031 53.5982 40.3031Z" fill="#A0D5ED"/>
<path d="M53.5987 34.8641C50.8504 34.8641 48.6226 32.5097 48.6226 29.6052V17.3267C48.6226 14.4222 50.8504 12.0678 53.5987 12.0678C56.347 12.0678 58.5748 14.4222 58.5748 17.3267V29.6052C58.5748 32.5097 56.347 34.8641 53.5987 34.8641Z" fill="#F2EAE7"/>
<path d="M76.5176 40.3031C82.0994 40.3031 86.6404 35.504 86.6404 29.6051V23.4641H66.3945V29.6051C66.3949 35.504 70.9359 40.3031 76.5176 40.3031Z" fill="#A0D5ED"/>
<path d="M76.5176 34.8641C73.7693 34.8641 71.5415 32.5097 71.5415 29.6052V17.3267C71.5415 14.4222 73.7693 12.0678 76.5176 12.0678C79.2659 12.0678 81.4938 14.4222 81.4938 17.3267V29.6052C81.4938 32.5097 79.2659 34.8641 76.5176 34.8641Z" fill="#F2EAE7"/>
<path d="M99.4362 40.3031C105.018 40.3031 109.559 35.504 109.559 29.6051V23.4641H89.3135V29.6051C89.3135 35.504 93.8545 40.3031 99.4362 40.3031Z" fill="#A0D5ED"/>
<path d="M99.4366 34.8641C96.6883 34.8641 94.4604 32.5097 94.4604 29.6052V17.3267C94.4604 14.4222 96.6883 12.0678 99.4366 12.0678C102.185 12.0678 104.413 14.4222 104.413 17.3267V29.6052C104.413 32.5097 102.185 34.8641 99.4366 34.8641Z" fill="#F2EAE7"/>
<path d="M122.356 40.3031C127.938 40.3031 132.479 35.504 132.479 29.6051V23.4641H112.233V29.6051C112.233 35.504 116.774 40.3031 122.356 40.3031Z" fill="#A0D5ED"/>
<path d="M122.356 34.8641C119.608 34.8641 117.38 32.5097 117.38 29.6052V17.3267C117.38 14.4222 119.608 12.0678 122.356 12.0678C125.104 12.0678 127.332 14.4222 127.332 17.3267V29.6052C127.332 32.5097 125.104 34.8641 122.356 34.8641Z" fill="#F2EAE7"/>
<path d="M145.275 40.3031C150.857 40.3031 155.398 35.504 155.398 29.6051V23.4641H135.152V29.6051C135.152 35.504 139.693 40.3031 145.275 40.3031Z" fill="#A0D5ED"/>
<path d="M145.275 34.8641C142.527 34.8641 140.299 32.5097 140.299 29.6052V17.3267C140.299 14.4222 142.527 12.0678 145.275 12.0678C148.023 12.0678 150.251 14.4222 150.251 17.3267V29.6052C150.251 32.5097 148.023 34.8641 145.275 34.8641Z" fill="#F2EAE7"/>
<path d="M173.441 49.6586V159.93C173.441 167.578 167.573 173.778 160.337 173.778H15.6888C8.45263 173.778 2.58545 167.578 2.58545 159.93V49.6586H173.441Z" fill="#F9F7F7"/>
<path d="M37.7168 159.648C26.8536 159.648 18.047 150.341 18.047 138.86V49.6586H2.58545V159.93C2.58545 167.578 8.45194 173.778 15.6888 173.778H160.337C167.574 173.778 173.441 167.578 173.441 159.93V159.648H37.7168Z" fill="#F2EAE7"/>
<path d="M152.212 79.6715H23.7884C21.5805 79.6715 19.7905 77.7798 19.7905 75.4464V65.7641C19.7905 63.4308 21.5805 61.5391 23.7884 61.5391H152.212C154.42 61.5391 156.21 63.4308 156.21 65.7641V75.4464C156.21 77.7801 154.42 79.6715 152.212 79.6715Z" fill="#A9E4F9"/>
<path d="M92.5008 105.576H83.5007C81.9992 105.576 80.7822 104.29 80.7822 102.703V95.6185C80.7822 94.0317 81.9992 92.7455 83.5007 92.7455H92.5008C94.0019 92.7455 95.2193 94.0317 95.2193 95.6185V102.703C95.2193 104.29 94.0019 105.576 92.5008 105.576Z" fill="#287CA1"/>
<path d="M66.991 105.576H57.9909C56.4895 105.576 55.2725 104.29 55.2725 102.703V95.6185C55.2725 94.0317 56.4895 92.7455 57.9909 92.7455H66.991C68.4921 92.7455 69.7095 94.0317 69.7095 95.6185V102.703C69.7095 104.29 68.4925 105.576 66.991 105.576Z" fill="#287CA1"/>
<path d="M41.4818 105.576H32.4816C30.9802 105.576 29.7632 104.29 29.7632 102.703V95.6185C29.7632 94.0317 30.9802 92.7455 32.4816 92.7455H41.4818C42.9832 92.7455 44.2002 94.0317 44.2002 95.6185V102.703C44.1999 104.29 42.9829 105.576 41.4818 105.576Z" fill="#287CA1"/>
<path d="M109.01 105.576H118.01C119.511 105.576 120.729 104.29 120.729 102.703V95.6185C120.729 94.0317 119.512 92.7455 118.01 92.7455H109.01C107.509 92.7455 106.292 94.0317 106.292 95.6185V102.703C106.292 104.29 107.509 105.576 109.01 105.576Z" fill="#287CA1"/>
<path d="M134.519 105.576H143.519C145.021 105.576 146.238 104.29 146.238 102.703V95.6185C146.238 94.0317 145.021 92.7455 143.519 92.7455H134.519C133.018 92.7455 131.801 94.0317 131.801 95.6185V102.703C131.801 104.29 133.018 105.576 134.519 105.576Z" fill="#287CA1"/>
<path d="M92.5008 130.394H83.5007C81.9992 130.394 80.7822 129.108 80.7822 127.522V120.437C80.7822 118.85 81.9992 117.564 83.5007 117.564H92.5008C94.0019 117.564 95.2193 118.85 95.2193 120.437V127.522C95.2193 129.108 94.0019 130.394 92.5008 130.394Z" fill="#287CA1"/>
<path d="M66.991 130.394H57.9909C56.4895 130.394 55.2725 129.108 55.2725 127.522V120.437C55.2725 118.85 56.4895 117.564 57.9909 117.564H66.991C68.4921 117.564 69.7095 118.85 69.7095 120.437V127.522C69.7095 129.108 68.4925 130.394 66.991 130.394Z" fill="#287CA1"/>
<path d="M41.4818 130.394H32.4816C30.9802 130.394 29.7632 129.108 29.7632 127.522V120.437C29.7632 118.85 30.9802 117.564 32.4816 117.564H41.4818C42.9832 117.564 44.2002 118.85 44.2002 120.437V127.522C44.1999 129.108 42.9829 130.394 41.4818 130.394Z" fill="#287CA1"/>
<path d="M92.5003 155.213H83.5002C81.9987 155.213 80.7817 153.927 80.7817 152.34V145.255C80.7817 143.668 81.9987 142.382 83.5002 142.382H92.5003C94.0014 142.382 95.2188 143.668 95.2188 145.255V152.34C95.2188 153.927 94.0014 155.213 92.5003 155.213Z" fill="#F4C14F"/>
<path d="M66.991 155.213H57.9909C56.4895 155.213 55.2725 153.927 55.2725 152.34V145.255C55.2725 143.668 56.4895 142.382 57.9909 142.382H66.991C68.4921 142.382 69.7095 143.668 69.7095 145.255V152.34C69.7095 153.927 68.4925 155.213 66.991 155.213Z" fill="#F4C14F"/>
<path d="M41.4818 155.213H32.4816C30.9802 155.213 29.7632 153.927 29.7632 152.34V145.255C29.7632 143.668 30.9802 142.382 32.4816 142.382H41.4818C42.9832 142.382 44.2002 143.668 44.2002 145.255V152.34C44.1999 153.927 42.9829 155.213 41.4818 155.213Z" fill="#287CA1"/>
<path d="M144.242 132.437L143.086 133.658C142.751 134.012 142.299 134.213 141.825 134.217L136.519 134.271L131.396 139.686L128.61 150.995C128.277 152.35 126.676 152.81 125.739 151.82L110.983 136.225C110.046 135.235 110.481 133.544 111.763 133.191L122.465 130.247L127.588 124.832L127.639 119.226C127.644 118.725 127.834 118.247 128.169 117.893L129.324 116.672C130.03 115.926 131.175 115.926 131.881 116.672L144.242 129.735C144.948 130.481 144.948 131.69 144.242 132.437Z" fill="#F4C14F"/>
<path d="M160.325 20.8244H152.812V17.4043C152.812 13.0048 149.425 9.4259 145.262 9.4259C141.099 9.4259 137.713 13.0048 137.713 17.4043V20.8244H129.893V17.4043C129.893 13.0048 126.506 9.4259 122.343 9.4259C118.18 9.4259 114.794 13.0048 114.794 17.4043V20.8244H106.973V17.4043C106.973 13.0048 103.587 9.4259 99.4237 9.4259C95.2607 9.4259 91.8742 13.0048 91.8742 17.4043V20.8244H84.0541V17.4043C84.0541 13.0048 80.6672 9.4259 76.5046 9.4259C72.342 9.4259 68.9552 13.0048 68.9552 17.4043V20.8244H61.135V17.4043C61.135 13.0048 57.7482 9.4259 53.5855 9.4259C49.4229 9.4259 46.0361 13.0048 46.0361 17.4043V20.8244H38.2156V17.4043C38.2156 13.0048 34.8288 9.4259 30.6661 9.4259C26.5035 9.4259 23.1167 13.0048 23.1167 17.4043V20.8244H15.6757C7.03204 20.8244 0 28.2556 0 37.3904V160.008C0 169.142 7.03204 176.574 15.6757 176.574H160.325C168.968 176.574 176 169.143 176 160.008V140.027C176 138.524 174.849 137.307 173.427 137.307C172.005 137.307 170.854 138.524 170.854 140.027V160.008C170.854 166.143 166.13 171.135 160.325 171.135H15.6757C9.87024 171.135 5.14665 166.143 5.14665 160.008V52.4548H21.6166C23.0378 52.4548 24.1899 51.2375 24.1899 49.7352C24.1899 48.233 23.0378 47.0157 21.6166 47.0157H5.14665V37.3904C5.14665 31.2551 9.8699 26.2635 15.6757 26.2635H23.1167V29.6832C23.1167 34.0827 26.5035 37.6616 30.6661 37.6616C34.8288 37.6616 38.2156 34.0827 38.2156 29.6832V26.2635H46.0358V29.6832C46.0358 34.0827 49.4226 37.6616 53.5852 37.6616C57.7478 37.6616 61.1347 34.0827 61.1347 29.6832V26.2635H68.9548V29.6832C68.9548 34.0827 72.3417 37.6616 76.5043 37.6616C80.6669 37.6616 84.0537 34.0827 84.0537 29.6832V26.2635H91.8739V29.6832C91.8739 34.0827 95.2604 37.6616 99.4233 37.6616C103.586 37.6616 106.973 34.0827 106.973 29.6832V26.2635H114.793V29.6832C114.793 34.0827 118.18 37.6616 122.343 37.6616C126.506 37.6616 129.892 34.0827 129.892 29.6832V26.2635H137.712V29.6832C137.712 34.0827 141.099 37.6616 145.262 37.6616C149.425 37.6616 152.812 34.0827 152.812 29.6832V26.2635H160.324C166.13 26.2635 170.853 31.2551 170.853 37.3904V47.0157H32.5831C31.1619 47.0157 30.0098 48.233 30.0098 49.7352C30.0098 51.2375 31.1619 52.4548 32.5831 52.4548H170.853V128.437C170.853 129.939 172.005 131.156 173.427 131.156C174.848 131.156 176 129.939 176 128.437V37.3904C176 28.2556 168.968 20.8244 160.325 20.8244ZM33.0689 29.6832C33.0689 31.0832 31.9909 32.2225 30.6661 32.2225C29.3414 32.2225 28.2633 31.0832 28.2633 29.6832V17.4047C28.2633 16.0046 29.3414 14.8653 30.6661 14.8653C31.9909 14.8653 33.0689 16.0046 33.0689 17.4047V29.6832ZM55.9883 29.6832C55.9883 31.0832 54.9103 32.2225 53.5855 32.2225C52.2608 32.2225 51.1827 31.0832 51.1827 29.6832V17.4047C51.1827 16.0046 52.2608 14.8653 53.5855 14.8653C54.9103 14.8653 55.9883 16.0046 55.9883 17.4047V29.6832ZM78.9074 29.6832C78.9074 31.0832 77.8294 32.2225 76.5046 32.2225C75.1799 32.2225 74.1018 31.0832 74.1018 29.6832V17.4047C74.1018 16.0046 75.1799 14.8653 76.5046 14.8653C77.8294 14.8653 78.9074 16.0046 78.9074 17.4047V29.6832ZM101.826 29.6832C101.826 31.0832 100.748 32.2225 99.4233 32.2225C98.0986 32.2225 97.0205 31.0832 97.0205 29.6832V17.4047C97.0205 16.0046 98.0986 14.8653 99.4233 14.8653C100.748 14.8653 101.826 16.0046 101.826 17.4047V29.6832ZM124.746 29.6832C124.746 31.0832 123.667 32.2225 122.343 32.2225C121.018 32.2225 119.94 31.0832 119.94 29.6832V17.4047C119.94 16.0046 121.018 14.8653 122.343 14.8653C123.667 14.8653 124.746 16.0046 124.746 17.4047V29.6832ZM147.665 29.6832C147.665 31.0832 146.587 32.2225 145.262 32.2225C143.937 32.2225 142.859 31.0832 142.859 29.6832V17.4047C142.859 16.0046 143.937 14.8653 145.262 14.8653C146.587 14.8653 147.665 16.0046 147.665 17.4047V29.6832Z" fill="black"/>
<path d="M152.212 82.3911H23.788C20.1645 82.3911 17.2168 79.2759 17.2168 75.4468V65.7646C17.2168 61.9351 20.1645 58.8203 23.788 58.8203H130.211C131.632 58.8203 132.784 60.0376 132.784 61.5398C132.784 63.0421 131.632 64.2594 130.211 64.2594H23.788C23.0023 64.2594 22.3634 64.9346 22.3634 65.7646V75.4468C22.3634 76.2768 23.0023 76.952 23.788 76.952H152.212C152.997 76.952 153.636 76.2768 153.636 75.4468V65.7646C153.636 64.9346 152.997 64.2594 152.212 64.2594H141.178C139.756 64.2594 138.604 63.0421 138.604 61.5398C138.604 60.0376 139.756 58.8203 141.178 58.8203H152.212C155.835 58.8203 158.783 61.9355 158.783 65.7646V75.4468C158.783 79.2759 155.835 82.3911 152.212 82.3911Z" fill="black"/>
<path d="M92.5 108.296H83.5003C80.5825 108.296 78.2085 105.787 78.2085 102.703V95.6185C78.2085 92.5349 80.5821 90.0261 83.5003 90.0261H92.5C95.4178 90.0261 97.7918 92.5349 97.7918 95.6185V102.703C97.7918 105.787 95.4178 108.296 92.5 108.296ZM83.4999 95.4651C83.42 95.4651 83.3548 95.5337 83.3548 95.6185V102.703C83.3548 102.788 83.4196 102.857 83.4999 102.857H92.4997C92.5797 102.857 92.6448 102.788 92.6448 102.703V95.6185C92.6448 95.534 92.58 95.4651 92.4997 95.4651H83.4999Z" fill="black"/>
<path d="M66.9906 108.296H57.9905C55.0727 108.296 52.6987 105.787 52.6987 102.703V95.6185C52.6987 92.5349 55.0724 90.0261 57.9905 90.0261H66.9906C69.9085 90.0261 72.2821 92.5349 72.2821 95.6185V102.703C72.2821 105.787 69.9085 108.296 66.9906 108.296ZM57.9905 95.4651C57.9106 95.4651 57.8454 95.5337 57.8454 95.6185V102.703C57.8454 102.788 57.9102 102.857 57.9905 102.857H66.9906C67.0706 102.857 67.1354 102.788 67.1354 102.703V95.6185C67.1354 95.534 67.0706 95.4651 66.9906 95.4651H57.9905Z" fill="black"/>
<path d="M41.4815 108.296H32.4814C29.5636 108.296 27.1899 105.787 27.1899 102.703V95.6185C27.1899 92.5349 29.5636 90.0261 32.4814 90.0261H41.4815C44.3993 90.0261 46.773 92.5349 46.773 95.6185V102.703C46.773 105.787 44.3993 108.296 41.4815 108.296ZM32.4814 95.4651C32.4014 95.4651 32.3366 95.5337 32.3366 95.6185V102.703C32.3366 102.788 32.4014 102.857 32.4814 102.857H41.4815C41.5615 102.857 41.6263 102.788 41.6263 102.703V95.6185C41.6263 95.534 41.5615 95.4651 41.4815 95.4651H32.4814Z" fill="black"/>
<path d="M118.009 108.296H109.01C106.092 108.296 103.718 105.787 103.718 102.703V95.6185C103.718 92.5349 106.092 90.0261 109.01 90.0261H118.009C120.927 90.0261 123.301 92.5349 123.301 95.6185V102.703C123.301 105.787 120.927 108.296 118.009 108.296ZM109.01 95.4651C108.93 95.4651 108.864 95.5337 108.864 95.6185V102.703C108.864 102.788 108.929 102.857 109.01 102.857H118.009C118.089 102.857 118.154 102.788 118.154 102.703V95.6185C118.154 95.534 118.09 95.4651 118.009 95.4651H109.01Z" fill="black"/>
<path d="M143.519 108.296H134.519C131.602 108.296 129.228 105.787 129.228 102.703V95.6185C129.228 92.5349 131.602 90.0261 134.519 90.0261H143.519C146.437 90.0261 148.811 92.5349 148.811 95.6185V102.703C148.811 105.787 146.437 108.296 143.519 108.296ZM134.519 95.4651C134.439 95.4651 134.374 95.5337 134.374 95.6185V102.703C134.374 102.788 134.439 102.857 134.519 102.857H143.519C143.599 102.857 143.664 102.788 143.664 102.703V95.6185C143.664 95.534 143.599 95.4651 143.519 95.4651H134.519Z" fill="black"/>
<path d="M92.5 133.114H83.5003C80.5825 133.114 78.2085 130.606 78.2085 127.522V120.437C78.2085 117.353 80.5821 114.845 83.5003 114.845H92.5C95.4178 114.845 97.7918 117.353 97.7918 120.437V127.522C97.7918 130.606 95.4178 133.114 92.5 133.114ZM83.4999 120.284C83.42 120.284 83.3548 120.352 83.3548 120.437V127.522C83.3548 127.606 83.4196 127.675 83.4999 127.675H92.4997C92.5797 127.675 92.6448 127.606 92.6448 127.522V120.437C92.6448 120.353 92.58 120.284 92.4997 120.284H83.4999Z" fill="black"/>
<path d="M66.9906 133.114H57.9905C55.0727 133.114 52.6987 130.606 52.6987 127.522V120.437C52.6987 117.353 55.0724 114.845 57.9905 114.845H66.9906C69.9085 114.845 72.2821 117.353 72.2821 120.437V127.522C72.2821 130.606 69.9085 133.114 66.9906 133.114ZM57.9905 120.284C57.9106 120.284 57.8454 120.352 57.8454 120.437V127.522C57.8454 127.606 57.9102 127.675 57.9905 127.675H66.9906C67.0706 127.675 67.1354 127.606 67.1354 127.522V120.437C67.1354 120.353 67.0706 120.284 66.9906 120.284H57.9905Z" fill="black"/>
<path d="M41.4815 133.114H32.4814C29.5636 133.114 27.1899 130.606 27.1899 127.522V120.437C27.1899 117.353 29.5636 114.845 32.4814 114.845H41.4815C44.3993 114.845 46.773 117.353 46.773 120.437V127.522C46.773 130.606 44.3993 133.114 41.4815 133.114ZM32.4814 120.284C32.4014 120.284 32.3366 120.352 32.3366 120.437V127.522C32.3366 127.606 32.4014 127.675 32.4814 127.675H41.4815C41.5615 127.675 41.6263 127.606 41.6263 127.522V120.437C41.6263 120.353 41.5615 120.284 41.4815 120.284H32.4814Z" fill="black"/>
<path d="M92.5 157.933H83.5003C80.5825 157.933 78.2085 155.424 78.2085 152.34V145.255C78.2085 142.172 80.5821 139.663 83.5003 139.663H92.5C95.4178 139.663 97.7918 142.172 97.7918 145.255V152.34C97.7918 155.424 95.4178 157.933 92.5 157.933ZM83.4999 145.102C83.42 145.102 83.3548 145.171 83.3548 145.256V152.34C83.3548 152.425 83.4196 152.494 83.4999 152.494H92.4997C92.5797 152.494 92.6448 152.425 92.6448 152.34V145.256C92.6448 145.171 92.58 145.102 92.4997 145.102H83.4999Z" fill="black"/>
<path d="M66.9906 157.933H57.9905C55.0727 157.933 52.6987 155.424 52.6987 152.34V145.255C52.6987 142.172 55.0724 139.663 57.9905 139.663H66.9906C69.9085 139.663 72.2821 142.172 72.2821 145.255V152.34C72.2821 155.424 69.9085 157.933 66.9906 157.933ZM57.9905 145.102C57.9106 145.102 57.8454 145.171 57.8454 145.256V152.34C57.8454 152.425 57.9102 152.494 57.9905 152.494H66.9906C67.0706 152.494 67.1354 152.425 67.1354 152.34V145.256C67.1354 145.171 67.0706 145.102 66.9906 145.102H57.9905Z" fill="black"/>
<path d="M41.4815 157.933H32.4814C29.5636 157.933 27.1899 155.424 27.1899 152.34V145.255C27.1899 142.172 29.5636 139.663 32.4814 139.663H41.4815C44.3993 139.663 46.773 142.172 46.773 145.255V152.34C46.773 155.424 44.3993 157.933 41.4815 157.933ZM32.4814 145.102C32.4014 145.102 32.3366 145.171 32.3366 145.256V152.34C32.3366 152.425 32.4014 152.494 32.4814 152.494H41.4815C41.5615 152.494 41.6263 152.425 41.6263 152.34V145.256C41.6263 145.171 41.5615 145.102 41.4815 145.102H32.4814Z" fill="black"/>
<path d="M126.956 155.069C125.833 155.069 124.733 154.602 123.92 153.743L109.163 138.148C108.079 137.002 107.655 135.319 108.058 133.756C108.46 132.192 109.631 130.967 111.115 130.56L121.139 127.802L125.024 123.696L125.065 119.2C125.077 117.979 125.532 116.833 126.348 115.97L127.504 114.749C128.331 113.875 129.431 113.393 130.602 113.393C131.772 113.393 132.872 113.875 133.699 114.749L146.06 127.812C147.768 129.618 147.768 132.555 146.061 134.36C146.06 134.36 146.06 134.36 146.06 134.361L144.905 135.582C144.088 136.445 143.003 136.926 141.848 136.937L137.595 136.981L133.71 141.086L131.1 151.68C130.714 153.248 129.556 154.486 128.076 154.911C127.706 155.017 127.33 155.069 126.956 155.069ZM113.863 135.423L126.498 148.775L128.905 139.001C129.021 138.532 129.252 138.105 129.576 137.763L134.699 132.348C135.176 131.844 135.821 131.558 136.494 131.551L141.488 131.5L141.881 131.085L130.602 119.166L130.209 119.582L130.161 124.858C130.154 125.57 129.884 126.251 129.408 126.755L124.284 132.17C123.96 132.512 123.555 132.757 123.113 132.879L113.863 135.423ZM144.242 132.437H144.245H144.242ZM142.421 130.514H142.425H142.421Z" fill="black"/>
<path d="M112.651 152.776C111.993 152.776 111.334 152.511 110.831 151.98C109.826 150.918 109.826 149.196 110.831 148.134L116.541 142.099C117.547 141.038 119.176 141.038 120.181 142.099C121.186 143.162 121.186 144.883 120.181 145.946L114.471 151.98C113.968 152.51 113.31 152.776 112.651 152.776Z" fill="black"/>
</g>
<defs>
<clipPath id="clip0">
<rect width="176" height="186" fill="white"/>
</clipPath>
</defs>
</svg>
