<svg width="24" height="25" viewBox="0 0 24 25" fill="none" xmlns="http://www.w3.org/2000/svg">
<g clip-path="url(#clip0)">
<path d="M12 24.9062C18.6274 24.9062 24 19.5337 24 12.9062C24 6.27883 18.6274 0.90625 12 0.90625C5.37258 0.90625 0 6.27883 0 12.9062C0 19.5337 5.37258 24.9062 12 24.9062Z" fill="#32BA7C"/>
<path d="M8.93359 18.3195L15.1039 24.4898C20.2144 23.127 23.9998 18.4709 23.9998 12.9062C23.9998 12.7926 23.9998 12.6791 23.9998 12.5655L19.1544 8.09863L8.93359 18.3195Z" fill="#0AA06E"/>
<path d="M12.3025 15.5935C12.8325 16.1235 12.8325 17.032 12.3025 17.5619L11.2047 18.6597C10.6748 19.1897 9.76626 19.1897 9.23629 18.6597L4.42873 13.8143C3.89876 13.2843 3.89876 12.3758 4.42873 11.8459L5.52652 10.7481C6.05648 10.2181 6.965 10.2181 7.49497 10.7481L12.3025 15.5935Z" fill="white"/>
<path d="M16.5068 7.22755C17.0368 6.69759 17.9453 6.69759 18.4753 7.22755L19.573 8.32535C20.103 8.85531 20.103 9.76383 19.573 10.2938L11.245 18.584C10.715 19.114 9.80649 19.114 9.27652 18.584L8.17873 17.4862C7.64876 16.9563 7.64876 16.0477 8.17873 15.5178L16.5068 7.22755Z" fill="white"/>
</g>
<defs>
<clipPath id="clip0">
<rect width="24" height="24" fill="white" transform="translate(0 0.90625)"/>
</clipPath>
</defs>
</svg>
